…
p1_tidy = p1_df %>%
  bind_rows() %>%
  gather(key = week, value = observation, week_1:week_8) %>%
  separate(week, into = c("delete", "week"), sep = "_") %>%
  select(study_id, arm, everything(), -(delete)) %>%
  arrange(study_id, week) %>%
  mutate(week = as.integer(week), 
         study_id = as.character(study_id))

p1_tidy
```

    ## # A tibble: 160 x 4
    ##    study_id arm           week observation
    ##    <chr>    <chr>        <int>       <dbl>
    ##  1 1        Control          1        0.2 
    ##  2 1        Experimental     1        3.05
    ##  3 1        Control          2       -1.31
    ##  4 1        Experimental     2        3.67
    ##  5 1        Control          3        0.66
    ##  6 1        Experimental     3        4.84
    ##  7 1        Control          4        1.96
    ##  8 1        Experimental     4        5.8 
    ##  9 1        Control          5        0.23
    ## 10 1        Experimental     5        6.33
    ## # ... with 150 more rows
…
